…
# View top consistently high-performing features
print(Apul_MP_summary)
```

    ## # A tibble: 100 × 5
    ##    Feature    Mean_R2 SD_R2 SE_R2 High_Perf_Count
    ##    <chr>        <dbl> <dbl> <dbl>           <int>
    ##  1 FUN_000398   0.764    NA    NA               1
    ##  2 FUN_001472   0.896    NA    NA               1
    ##  3 FUN_001503   0.687    NA    NA               1
    ##  4 FUN_001545   0.894    NA    NA               1
    ##  5 FUN_001628   0.643    NA    NA               1
    ##  6 FUN_004291   0.678    NA    NA               1
    ##  7 FUN_004740   0.817    NA    NA               1
    ##  8 FUN_004891   0.736    NA    NA               1
    ##  9 FUN_007645   0.785    NA    NA               1
    ## 10 FUN_007857   0.557    NA    NA               1
    ## # ℹ 90 more rows
…
# View top consistently high-performing features
print(Apul_MP_summary_highperf)
```

    ## # A tibble: 62 × 5
    ##    Feature    Mean_R2 SD_R2 SE_R2 High_Perf_Count
    ##    <chr>        <dbl> <dbl> <dbl>           <int>
    ##  1 FUN_000398   0.830    NA    NA               1
    ##  2 FUN_001472   0.928    NA    NA               1
    ##  3 FUN_001503   0.891    NA    NA               1
    ##  4 FUN_001545   0.982    NA    NA               1
    ##  5 FUN_001628   0.768    NA    NA               1
    ##  6 FUN_004291   0.576    NA    NA               1
    ##  7 FUN_004740   0.688    NA    NA               1
    ##  8 FUN_004891   0.825    NA    NA               1
    ##  9 FUN_007645   0.954    NA    NA               1
    ## 10 FUN_007914   0.933    NA    NA               1
    ## # ℹ 52 more rows
…
Save top predictors and metrics of each well-predicted gene

``` r
# Combine all sub-tibbles into a single data frame with the parent list name as an ID
Apul_top_predictors_df <- imap_dfr(Apul_top_predictors, ~ {
  .x
})

# View the resulting data frame
print(Apul_top_predictors_df)
```

    ## # A tibble: 1,120 × 4
    ##    Predictor              MeanImportance Type   Feature   
    ##    <chr>                           <dbl> <chr>  <chr>     
    ##  1 lncRNA_51589                   0.220  lncRNA FUN_000398
    ##  2 CpG_ptg000015l_9571908         0.107  CpG    FUN_000398
    ##  3 lncRNA_18653                   0.0808 lncRNA FUN_000398
    ##  4 lncRNA_9231                    0.0714 lncRNA FUN_000398
    ##  5 lncRNA_19947                   0.0645 lncRNA FUN_000398
    ##  6 lncRNA_40567                   0.0631 lncRNA FUN_000398
    ##  7 lncRNA_910                     0.0446 lncRNA FUN_000398
    ##  8 lncRNA_909                     0.0432 lncRNA FUN_000398
    ##  9 lncRNA_51500                   0.0432 lncRNA FUN_000398
    ## 10 lncRNA_45302                   0.0416 lncRNA FUN_000398
    ## # ℹ 1,110 more rows
…
