…
# View top consistently high-performing features
print(Apul_MP_summary)
```

    ## # A tibble: 100 × 5
    ##    Feature    Mean_R2  SD_R2   SE_R2 High_Perf_Count
    ##    <chr>        <dbl>  <dbl>   <dbl>           <int>
    ##  1 FUN_000398   0.757 0.107  0.0339               10
    ##  2 FUN_001472   0.882 0.0316 0.01000              10
    ##  3 FUN_007645   0.841 0.108  0.0342               10
    ##  4 FUN_007914   0.719 0.140  0.0442               10
    ##  5 FUN_009441   0.689 0.146  0.0462               10
    ##  6 FUN_011416   0.749 0.0915 0.0289               10
    ##  7 FUN_026486   0.770 0.104  0.0330               10
    ##  8 FUN_026489   0.834 0.0996 0.0315               10
    ##  9 FUN_039701   0.774 0.148  0.0469               10
    ## 10 FUN_041850   0.736 0.105  0.0333               10
    ## # ℹ 90 more rows
…
# View top consistently high-performing features
print(Apul_MP_summary_highperf)
```

    ## # A tibble: 25 × 5
    ##    Feature    Mean_R2  SD_R2  SE_R2 High_Perf_Count
    ##    <chr>        <dbl>  <dbl>  <dbl>           <int>
    ##  1 FUN_001472   0.855 0.0837 0.0187              20
    ##  2 FUN_026489   0.801 0.0719 0.0161              20
    ##  3 FUN_007645   0.785 0.127  0.0283              19
    ##  4 FUN_008515   0.680 0.124  0.0278              19
    ##  5 FUN_026486   0.758 0.139  0.0311              19
    ##  6 FUN_039701   0.725 0.128  0.0287              19
    ##  7 FUN_041850   0.689 0.179  0.0400              18
    ##  8 FUN_007914   0.707 0.168  0.0376              17
    ##  9 FUN_011416   0.668 0.157  0.0350              17
    ## 10 FUN_040987   0.657 0.215  0.0481              17
    ## # ℹ 15 more rows
…
Save top predictors and metrics of each well-predicted gene

``` r
# Combine all sub-tibbles into a single data frame with the parent list name as an ID
Apul_top_predictors_df <- imap_dfr(Apul_top_predictors, ~ {
  .x
})

# View the resulting data frame
print(Apul_top_predictors_df)
```

    ## # A tibble: 360 × 4
    ##    Predictor     MeanImportance Type   Feature   
    ##    <chr>                  <dbl> <chr>  <chr>     
    ##  1 Cluster_4752          0.422  miRNA  FUN_000398
    ##  2 Cluster_14532         0.186  miRNA  FUN_000398
    ##  3 lncRNA_PC16           0.121  lncRNA FUN_000398
    ##  4 Cluster_5603          0.0898 miRNA  FUN_000398
    ##  5 Cluster_16354         0.0883 miRNA  FUN_000398
    ##  6 Cluster_1950          0.0714 miRNA  FUN_000398
    ##  7 Cluster_4036          0.0659 miRNA  FUN_000398
    ##  8 lncRNA_PC12           0.0605 lncRNA FUN_000398
    ##  9 Cluster_15097         0.0555 miRNA  FUN_000398
    ## 10 Cluster_13327         0.0545 miRNA  FUN_000398
    ## # ℹ 350 more rows
…
# View top consistently high-performing features
print(Peve_MP_summary)
```

    ## # A tibble: 100 × 5
    ##    Feature            Mean_R2 SD_R2  SE_R2 High_Perf_Count
    ##    <chr>                <dbl> <dbl>  <dbl>           <int>
    ##  1 gene-Peve_00002553   0.763 0.113 0.0356              10
    ##  2 gene-Peve_00025748   0.734 0.138 0.0438               9
    ##  3 gene-Peve_00002363   0.534 0.241 0.0763               6
    ##  4 gene-Peve_00040540   0.558 0.223 0.0706               6
    ##  5 gene-Peve_00018856   0.559 0.292 0.0924               5
    ##  6 gene-Peve_00019361   0.422 0.258 0.0816               5
    ##  7 gene-Peve_00022572   0.507 0.227 0.0719               5
    ##  8 gene-Peve_00025427   0.454 0.225 0.0712               5
    ##  9 gene-Peve_00026295   0.449 0.284 0.0899               5
    ## 10 gene-Peve_00030694   0.535 0.293 0.0926               5
    ## # ℹ 90 more rows
…
Save top predictors and metrics of each well-predicted gene

``` r
# Combine all sub-tibbles into a single data frame with the parent list name as an ID
Peve_top_predictors_df <- imap_dfr(Peve_top_predictors, ~ {
  .x
})

# View the resulting data frame
print(Peve_top_predictors_df)
```

    ## # A tibble: 80 × 4
    ##    Predictor     MeanImportance Type   Feature           
    ##    <chr>                  <dbl> <chr>  <chr>             
    ##  1 WGBS_PC2              0.326  WGBS   gene-Peve_00002553
    ##  2 Cluster_15329         0.144  miRNA  gene-Peve_00002553
    ##  3 Cluster_5058          0.121  miRNA  gene-Peve_00002553
    ##  4 WGBS_PC5              0.0994 WGBS   gene-Peve_00002553
    ##  5 Cluster_661           0.0827 miRNA  gene-Peve_00002553
    ##  6 Cluster_5613          0.0678 miRNA  gene-Peve_00002553
    ##  7 WGBS_PC4              0.0580 WGBS   gene-Peve_00002553
    ##  8 lncRNA_PC1            0.0496 lncRNA gene-Peve_00002553
    ##  9 lncRNA_PC2            0.0480 lncRNA gene-Peve_00002553
    ## 10 Cluster_3652          0.0471 miRNA  gene-Peve_00002553
    ## # ℹ 70 more rows
…
# View top consistently high-performing features
print(Ptuh_MP_summary)
```

    ## # A tibble: 100 × 5
    ##    Feature                                  Mean_R2 SD_R2  SE_R2 High_Perf_Count
    ##    <chr>                                      <dbl> <dbl>  <dbl>           <int>
    ##  1 gene-Pocillopora_meandrina_HIv1___RNAse…   0.656 0.157 0.0496               9
    ##  2 gene-Pocillopora_meandrina_HIv1___RNAse…   0.695 0.256 0.0811               8
    ##  3 gene-Pocillopora_meandrina_HIv1___RNAse…   0.713 0.214 0.0677               8
    ##  4 gene-Pocillopora_meandrina_HIv1___RNAse…   0.472 0.249 0.0789               7
    ##  5 gene-Pocillopora_meandrina_HIv1___RNAse…   0.567 0.173 0.0546               7
    ##  6 gene-Pocillopora_meandrina_HIv1___RNAse…   0.475 0.279 0.0883               6
    ##  7 gene-Pocillopora_meandrina_HIv1___RNAse…   0.421 0.304 0.0962               6
    ##  8 gene-Pocillopora_meandrina_HIv1___RNAse…   0.579 0.267 0.0843               6
    ##  9 gene-Pocillopora_meandrina_HIv1___RNAse…   0.568 0.240 0.0758               6
    ## 10 gene-Pocillopora_meandrina_HIv1___RNAse…   0.469 0.267 0.0845               5
    ## # ℹ 90 more rows
…
Save top predictors and metrics of each well-predicted gene

``` r
# Combine all sub-tibbles into a single data frame with the parent list name as an ID
Ptuh_top_predictors_df <- imap_dfr(Ptuh_top_predictors, ~ {
  .x
})

# View the resulting data frame
print(Ptuh_top_predictors_df)
```

    ## # A tibble: 120 × 4
    ##    Predictor    MeanImportance Type   Feature                                   
    ##    <chr>                 <dbl> <chr>  <chr>                                     
    ##  1 Cluster_4609         1.46   miRNA  gene-Pocillopora_meandrina_HIv1___RNAseq.…
    ##  2 Cluster_5627         0.960  miRNA  gene-Pocillopora_meandrina_HIv1___RNAseq.…
    ##  3 Cluster_1345         0.470  miRNA  gene-Pocillopora_meandrina_HIv1___RNAseq.…
    ##  4 Cluster_4485         0.275  miRNA  gene-Pocillopora_meandrina_HIv1___RNAseq.…
    ##  5 WGBS_PC6             0.154  WGBS   gene-Pocillopora_meandrina_HIv1___RNAseq.…
    ##  6 Cluster_5123         0.102  miRNA  gene-Pocillopora_meandrina_HIv1___RNAseq.…
    ##  7 lncRNA_PC1           0.0831 lncRNA gene-Pocillopora_meandrina_HIv1___RNAseq.…
    ##  8 Cluster_2871         0.0781 miRNA  gene-Pocillopora_meandrina_HIv1___RNAseq.…
    ##  9 lncRNA_PC19          0.0557 lncRNA gene-Pocillopora_meandrina_HIv1___RNAseq.…
    ## 10 Cluster_3415         0.0510 miRNA  gene-Pocillopora_meandrina_HIv1___RNAseq.…
    ## # ℹ 110 more rows
…
