…
Many of the miRNAs only have a couple of intereacting genes with
available annotations, so I’ll focus on the larger modules for now

``` r
miRNA_mRNA_count <- pcc_miRanda_sig_FA  %>%
  group_by(miRNA) %>%
  summarise(mRNA_count = n_distinct(mRNA)) %>%
  arrange(desc(mRNA_count))

# View the result
print(miRNA_mRNA_count)
```

    ## # A tibble: 44 × 2
    ##    miRNA         mRNA_count
    ##    <chr>              <int>
    ##  1 Cluster_14532        252
    ##  2 Cluster_4752         129
    ##  3 Cluster_1865         125
    ##  4 Cluster_2500          76
    ##  5 Cluster_2372          71
    ##  6 Cluster_17245         60
    ##  7 Cluster_5516          60
    ##  8 Cluster_3109          47
    ##  9 Cluster_17623         42
    ## 10 Cluster_3301          42
    ## # ℹ 34 more rows
…
