…
# Convert to data frame and reshape for plotting
top_loadings_df <- as.data.frame(top_loadings) %>%
  rownames_to_column(var = "CpG") %>%
  pivot_longer(-CpG, names_to = "Methylation_PC", values_to = "Loading")

# View top CpGs contributing most to each PC
top_cpgs <- top_loadings_df %>%
  group_by(Methylation_PC) %>%
  arrange(desc(abs(Loading))) %>%
  slice_head(n = 20)  # Select top 10 CpGs per PC

print(top_cpgs)
```

    ## # A tibble: 100 × 3
    ## # Groups:   Methylation_PC [5]
    ##    CpG                     Methylation_PC Loading
    ##    <chr>                   <chr>            <dbl>
    ##  1 CpG_ptg000027l_13526774 PC10             0.141
    ##  2 CpG_ptg000027l_13526778 PC10             0.139
    ##  3 CpG_ptg000027l_13526776 PC10             0.134
    ##  4 CpG_ptg000024l_4334180  PC10            -0.134
    ##  5 CpG_ptg000023l_16429552 PC10             0.130
    ##  6 CpG_ptg000024l_4334178  PC10            -0.125
    ##  7 CpG_ptg000024l_4334569  PC10             0.117
    ##  8 CpG_ptg000024l_4334182  PC10            -0.115
    ##  9 CpG_ptg000016l_4107446  PC10             0.113
    ## 10 CpG_ptg000047l_404708   PC10            -0.112
    ## # ℹ 90 more rows
…
