…
# Convert to data frame and reshape for plotting
merged_loadings_df <- as.data.frame(merged_loadings) %>%
  rownames_to_column(var = "gene_miRNA") %>%
  pivot_longer(-gene_miRNA, names_to = "Merged_PC", values_to = "Loading")

# View top CpGs contributing most to each PC
top_genes <- merged_loadings_df %>%
  group_by(Merged_PC) %>%
  arrange(desc(abs(Loading))) %>%
  slice_head(n = 20)  # Select top 10 CpGs per PC

print(top_genes)
```

    ## # A tibble: 760 × 3
    ## # Groups:   Merged_PC [38]
    ##    gene_miRNA Merged_PC Loading
    ##    <chr>      <chr>       <dbl>
    ##  1 FUN_007064 PC1       -0.0129
    ##  2 FUN_014752 PC1       -0.0129
    ##  3 FUN_015256 PC1       -0.0129
    ##  4 FUN_008915 PC1       -0.0129
    ##  5 FUN_034091 PC1       -0.0129
    ##  6 FUN_034489 PC1       -0.0129
    ##  7 FUN_038509 PC1       -0.0129
    ##  8 FUN_014524 PC1       -0.0129
    ##  9 FUN_033051 PC1       -0.0129
    ## 10 FUN_001532 PC1       -0.0129
    ## # ℹ 750 more rows
…
# Convert to data frame and reshape for plotting
genes_loadings_df <- as.data.frame(genes_loadings) %>%
  rownames_to_column(var = "gene") %>%
  pivot_longer(-gene, names_to = "Genes_PC", values_to = "Loading")

# View top genes contributing most to each PC
top_genes2 <- genes_loadings_df %>%
  group_by(Genes_PC) %>%
  arrange(desc(abs(Loading))) %>%
  slice_head(n = 20)  # Select top 10 CpGs per PC

print(top_genes2)
```

    ## # A tibble: 760 × 3
    ## # Groups:   Genes_PC [38]
    ##    gene       Genes_PC Loading
    ##    <chr>      <chr>      <dbl>
    ##  1 FUN_007064 PC1      -0.0129
    ##  2 FUN_014752 PC1      -0.0129
    ##  3 FUN_015256 PC1      -0.0129
    ##  4 FUN_008915 PC1      -0.0129
    ##  5 FUN_034091 PC1      -0.0129
    ##  6 FUN_034489 PC1      -0.0129
    ##  7 FUN_038509 PC1      -0.0129
    ##  8 FUN_014524 PC1      -0.0129
    ##  9 FUN_033051 PC1      -0.0129
    ## 10 FUN_001532 PC1      -0.0129
    ## # ℹ 750 more rows
…
