…
# Convert to data frame and reshape for plotting
loadings_Host_AFDW_df <- as.data.frame(loadings_Host_AFDW) %>%
  rownames_to_column(var = "gene") %>%
  pivot_longer(-gene, names_to = "Host_AFDW_PC", values_to = "Loading")

# View top genes contributing most to each PC
top_genes_Host_AFDW <- loadings_Host_AFDW_df %>%
  group_by(Host_AFDW_PC) %>%
  arrange(desc(abs(Loading))) %>%
  slice_head(n = 20)  # Select top 20 genes per PC

print(top_genes_Host_AFDW)
```

    ## # A tibble: 800 × 3
    ## # Groups:   Host_AFDW_PC [40]
    ##    gene       Host_AFDW_PC Loading
    ##    <chr>      <chr>          <dbl>
    ##  1 FUN_010504 PC1           0.0593
    ##  2 FUN_033160 PC1           0.0587
    ##  3 FUN_042402 PC1           0.0580
    ##  4 FUN_026248 PC1           0.0579
    ##  5 FUN_010505 PC1           0.0578
    ##  6 FUN_030089 PC1           0.0576
    ##  7 FUN_027385 PC1           0.0575
    ##  8 FUN_013949 PC1           0.0573
    ##  9 FUN_008069 PC1           0.0572
    ## 10 FUN_036450 PC1           0.0570
    ## # ℹ 790 more rows
…
# Convert to data frame and reshape for plotting
loadings_Am_df <- as.data.frame(loadings_Am) %>%
  rownames_to_column(var = "gene") %>%
  pivot_longer(-gene, names_to = "Am_PC", values_to = "Loading")

# View top CpGs contributing most to each PC
top_genes_Am <- loadings_Am_df %>%
  group_by(Am_PC) %>%
  arrange(desc(abs(Loading))) %>%
  slice_head(n = 20)  # Select top 10 CpGs per PC

print(top_genes_Am)
```

    ## # A tibble: 800 × 3
    ## # Groups:   Am_PC [40]
    ##    gene       Am_PC Loading
    ##    <chr>      <chr>   <dbl>
    ##  1 FUN_011681 PC1   -0.0250
    ##  2 FUN_040949 PC1    0.0244
    ##  3 FUN_027962 PC1    0.0244
    ##  4 FUN_023373 PC1    0.0244
    ##  5 FUN_000239 PC1    0.0244
    ##  6 FUN_014926 PC1    0.0241
    ##  7 FUN_001784 PC1   -0.0240
    ##  8 FUN_016798 PC1   -0.0239
    ##  9 FUN_023033 PC1   -0.0239
    ## 10 FUN_016083 PC1   -0.0238
    ## # ℹ 790 more rows
…
# Convert to data frame and reshape for plotting
loadings_ATP_prod_GO_df <- as.data.frame(loadings_ATP_prod_GO) %>%
  rownames_to_column(var = "gene") %>%
  pivot_longer(-gene, names_to = "ATP_prod_GO_PC", values_to = "Loading")

# View top CpGs contributing most to each PC
top_genes_ATP_prod_GO <- loadings_ATP_prod_GO_df %>%
  group_by(ATP_prod_GO_PC) %>%
  arrange(desc(abs(Loading))) %>%
  slice_head(n = 20)  # Select top 10 CpGs per PC

print(top_genes_ATP_prod_GO)
```

    ## # A tibble: 440 × 3
    ## # Groups:   ATP_prod_GO_PC [22]
    ##    gene       ATP_prod_GO_PC Loading
    ##    <chr>      <chr>            <dbl>
    ##  1 FUN_025802 PC1              0.328
    ##  2 FUN_025367 PC1              0.316
    ##  3 FUN_000960 PC1              0.313
    ##  4 FUN_031975 PC1              0.311
    ##  5 FUN_031686 PC1              0.290
    ##  6 FUN_014565 PC1              0.277
    ##  7 FUN_007016 PC1              0.246
    ##  8 FUN_039808 PC1              0.243
    ##  9 FUN_038166 PC1              0.242
    ## 10 FUN_025823 PC1              0.208
    ## # ℹ 430 more rows
…
# Convert to data frame and reshape for plotting
loadings_energy_GO_df <- as.data.frame(loadings_energy_GO) %>%
  rownames_to_column(var = "gene") %>%
  pivot_longer(-gene, names_to = "energy_GO_PC", values_to = "Loading")

# View top CpGs contributing most to each PC
top_genes_energy_GO <- loadings_energy_GO_df %>%
  group_by(energy_GO_PC) %>%
  arrange(desc(abs(Loading))) %>%
  slice_head(n = 20)  # Select top 10 CpGs per PC

print(top_genes_energy_GO)
```

    ## # A tibble: 800 × 3
    ## # Groups:   energy_GO_PC [40]
    ##    gene       energy_GO_PC Loading
    ##    <chr>      <chr>          <dbl>
    ##  1 FUN_028200 PC1            0.115
    ##  2 FUN_040444 PC1            0.113
    ##  3 FUN_017915 PC1            0.112
    ##  4 FUN_001396 PC1           -0.109
    ##  5 FUN_026618 PC1           -0.108
    ##  6 FUN_029673 PC1           -0.107
    ##  7 FUN_023596 PC1            0.107
    ##  8 FUN_000370 PC1           -0.106
    ##  9 FUN_039293 PC1            0.106
    ## 10 FUN_001160 PC1           -0.105
    ## # ℹ 790 more rows
…
