…
    $ `ACR-229-TP3` <dbl> 107.00, 96.00, 837.25, 837.25, 837.25, 837.25, 44.50, 21…
    $ `ACR-229-TP4` <dbl> 66.00, 178.00, 786.00, 786.00, 786.00, 786.00, 0.00, 0.0…
    $ `ACR-237-TP1` <dbl> 22.00, 42.00, 1060.75, 1060.75, 1060.75, 1060.75, 1.50, …
    $ `ACR-237-TP2` <dbl> 58.00, 60.00, 680.20, 680.20, 680.20, 680.20, 15.00, 11.…
    $ `ACR-237-TP3` <dbl> 29.00, 23.00, 672.75, 672.75, 672.75, 672.75, 34.50, 23.…
    $ `ACR-237-TP4` <dbl> 104.00, 4.00, 1327.50, 1327.50, 1327.50, 1327.50, 0.00, …
    $ `ACR-244-TP1` <dbl> 6.00, 116.00, 697.50, 697.50, 697.50, 697.50, 1.00, 0.00…
    $ `ACR-244-TP2` <dbl> 32.00, 109.00, 834.50, 834.50, 834.50, 834.50, 27.50, 22…
    $ `ACR-244-TP3` <dbl> 181.00, 58.00, 823.00, 823.00, 823.00, 823.00, 46.50, 38…
    $ `ACR-244-TP4` <dbl> 38.00, 67.00, 1132.75, 1132.75, 1132.75, 1132.75, 9.50, …
    $ `ACR-265-TP1` <dbl> 5.00, 147.00, 1188.50, 1188.50, 1188.50, 1188.50, 25.00,…
    $ `ACR-265-TP2` <dbl> 76.00, 106.00, 812.25, 812.25, 812.25, 812.25, 40.50, 30…
    $ `ACR-265-TP3` <dbl> 254.00, 109.00, 735.00, 735.00, 735.00, 735.00, 33.00, 2…
    $ `ACR-265-TP4` <dbl> 43.00, 28.00, 982.25, 982.25, 982.25, 982.25, 14.00, 14.…
    # A tibble: 15,559 × 41
       Geneid  `ACR-139-TP1` `ACR-139-TP2` `ACR-139-TP3` `ACR-139-TP4` `ACR-145-TP1`
       <chr>           <dbl>         <dbl>         <dbl>         <dbl>         <dbl>
     1 lncRNA…         113             2             2           114           154  
     2 lncRNA…          48            19            23            10            50  
     3 lncRNA…         648.          695.          958.          765.          846. 
     4 lncRNA…         648.          695.          958.          765.          846. 
     5 lncRNA…         648.          695.          958.          765.          846. 
     6 lncRNA…         648.          695.          958.          765.          846. 
     7 lncRNA…          52.5          13            19            71            23  
     8 lncRNA…          36.5           8            13            34            15  
     9 lncRNA…           0             3.5           4.5           2.5          53.5
    10 lncRNA…           4             6            25            39            26  
    # ℹ 15,549 more rows
    # ℹ 35 more variables: `ACR-145-TP2` <dbl>, `ACR-145-TP3` <dbl>,
    #   `ACR-145-TP4` <dbl>, `ACR-150-TP1` <dbl>, `ACR-150-TP2` <dbl>,
    #   `ACR-150-TP3` <dbl>, `ACR-150-TP4` <dbl>, `ACR-173-TP1` <dbl>,
    #   `ACR-173-TP2` <dbl>, `ACR-173-TP3` <dbl>, `ACR-173-TP4` <dbl>,
    #   `ACR-186-TP1` <dbl>, `ACR-186-TP2` <dbl>, `ACR-186-TP3` <dbl>,
    #   `ACR-186-TP4` <dbl>, `ACR-225-TP1` <dbl>, `ACR-225-TP2` <dbl>, …
…
    $ `ACR-229-TP3` <int> 1, 0, 0, 3, 1, 2, 1, 0, 1, 2, 1, 2, 1, 0, 1, 0, 1, 0, 1,…
    $ `ACR-229-TP4` <int> 0, 0, 0, 1, 0, 1, 0, 0, 0, 1, 0, 1, 0, 0, 1, 0, 1, 0, 1,…
    $ `ACR-237-TP1` <int> 16, 0, 0, 45, 2, 43, 2, 2, 2, 35, 2, 35, 2, 3, 36, 2, 11…
    $ `ACR-237-TP2` <int> 16, 0, 0, 37, 4, 52, 4, 7, 3, 42, 4, 44, 4, 6, 35, 7, 14…
    $ `ACR-237-TP3` <int> 14, 1, 1, 36, 7, 52, 6, 15, 6, 41, 6, 41, 7, 11, 31, 13,…
    $ `ACR-237-TP4` <int> 24, 0, 0, 51, 2, 54, 2, 4, 2, 44, 2, 41, 2, 3, 45, 5, 16…
    $ `ACR-244-TP1` <int> 2, 0, 0, 3, 0, 3, 0, 0, 0, 2, 0, 2, 0, 1, 2, 0, 0, 0, 2,…
    $ `ACR-244-TP2` <int> 1, 0, 0, 4, 1, 5, 1, 1, 1, 4, 1, 4, 1, 2, 3, 2, 1, 0, 3,…
    $ `ACR-244-TP3` <int> 3, 0, 0, 12, 3, 12, 3, 2, 3, 10, 4, 9, 3, 2, 7, 2, 2, 1,…
    $ `ACR-244-TP4` <int> 1, 0, 0, 3, 1, 3, 1, 0, 1, 3, 1, 3, 1, 0, 3, 0, 1, 0, 3,…
    $ `ACR-265-TP1` <int> 18, 0, 0, 31, 1, 39, 1, 0, 1, 38, 1, 30, 1, 1, 34, 1, 13…
    $ `ACR-265-TP2` <int> 9, 0, 1, 29, 2, 37, 2, 9, 3, 33, 2, 31, 3, 10, 22, 7, 12…
    $ `ACR-265-TP3` <int> 5, 0, 0, 23, 3, 30, 4, 6, 3, 24, 4, 26, 4, 5, 17, 5, 5, …
    $ `ACR-265-TP4` <int> 12, 0, 0, 23, 1, 20, 1, 0, 2, 16, 1, 15, 1, 1, 20, 0, 8,…
    # A tibble: 44,371 × 41
       gene_id `ACR-139-TP1` `ACR-139-TP2` `ACR-139-TP3` `ACR-139-TP4` `ACR-145-TP1`
       <chr>           <int>         <int>         <int>         <int>         <int>
     1 FUN_00…             3             2             3             4            12
     2 FUN_00…             0             1             0             0             0
     3 FUN_00…             0             0             0             0             0
     4 FUN_00…            10             5            10            10            23
     5 FUN_00…             2             1             1             2             2
     6 FUN_00…            12             7            10            10            26
     7 FUN_00…             3             1             2             2             1
     8 FUN_00…             1             2             1             1             3
     9 FUN_00…             3             1             1             3             2
    10 FUN_00…            12             7            11            11            24
    # ℹ 44,361 more rows
    # ℹ 35 more variables: `ACR-145-TP2` <int>, `ACR-145-TP3` <int>,
    #   `ACR-145-TP4` <int>, `ACR-150-TP1` <int>, `ACR-150-TP2` <int>,
    #   `ACR-150-TP3` <int>, `ACR-150-TP4` <int>, `ACR-173-TP1` <int>,
    #   `ACR-173-TP2` <int>, `ACR-173-TP3` <int>, `ACR-173-TP4` <int>,
    #   `ACR-186-TP1` <int>, `ACR-186-TP2` <int>, `ACR-186-TP3` <int>,
    #   `ACR-186-TP4` <int>, `ACR-225-TP1` <int>, `ACR-225-TP2` <int>, …
…
    $ `ACR-229-TP3` <int> 1, 0, 0, 3, 1, 2, 1, 0, 1, 2, 1, 2, 1, 0, 1, 0, 1, 0, 1,…
    $ `ACR-229-TP4` <int> 0, 0, 0, 1, 0, 1, 0, 0, 0, 1, 0, 1, 0, 0, 1, 0, 1, 0, 1,…
    $ `ACR-237-TP1` <int> 16, 0, 0, 45, 2, 43, 2, 2, 2, 35, 2, 35, 2, 3, 36, 2, 11…
    $ `ACR-237-TP2` <int> 16, 0, 0, 37, 4, 52, 4, 7, 3, 42, 4, 44, 4, 6, 35, 7, 14…
    $ `ACR-237-TP3` <int> 14, 1, 1, 36, 7, 52, 6, 15, 6, 41, 6, 41, 7, 11, 31, 13,…
    $ `ACR-237-TP4` <int> 24, 0, 0, 51, 2, 54, 2, 4, 2, 44, 2, 41, 2, 3, 45, 5, 16…
    $ `ACR-244-TP1` <int> 2, 0, 0, 3, 0, 3, 0, 0, 0, 2, 0, 2, 0, 1, 2, 0, 0, 0, 2,…
    $ `ACR-244-TP2` <int> 1, 0, 0, 4, 1, 5, 1, 1, 1, 4, 1, 4, 1, 2, 3, 2, 1, 0, 3,…
    $ `ACR-244-TP3` <int> 3, 0, 0, 12, 3, 12, 3, 2, 3, 10, 4, 9, 3, 2, 7, 2, 2, 1,…
    $ `ACR-244-TP4` <int> 1, 0, 0, 3, 1, 3, 1, 0, 1, 3, 1, 3, 1, 0, 3, 0, 1, 0, 3,…
    $ `ACR-265-TP1` <int> 18, 0, 0, 31, 1, 39, 1, 0, 1, 38, 1, 30, 1, 1, 34, 1, 13…
    $ `ACR-265-TP2` <int> 9, 0, 1, 29, 2, 37, 2, 9, 3, 33, 2, 31, 3, 10, 22, 7, 12…
    $ `ACR-265-TP3` <int> 5, 0, 0, 23, 3, 30, 4, 6, 3, 24, 4, 26, 4, 5, 17, 5, 5, …
    $ `ACR-265-TP4` <int> 12, 0, 0, 23, 1, 20, 1, 0, 2, 16, 1, 15, 1, 1, 20, 0, 8,…
    # A tibble: 44,371 × 41
       transcript_id `ACR-139-TP1` `ACR-139-TP2` `ACR-139-TP3` `ACR-139-TP4`
       <chr>                 <int>         <int>         <int>         <int>
     1 FUN_002326-T1             3             2             3             4
     2 FUN_002315-T1             0             1             0             0
     3 FUN_002316-T1             0             0             0             0
     4 FUN_002303-T1            10             5            10            10
     5 FUN_002304-T1             2             1             1             2
     6 FUN_002305-T1            12             7            10            10
     7 FUN_002306-T1             3             1             2             2
     8 FUN_002307-T1             1             2             1             1
     9 FUN_002308-T1             3             1             1             3
    10 FUN_002309-T1            12             7            11            11
    # ℹ 44,361 more rows
    # ℹ 36 more variables: `ACR-145-TP1` <int>, `ACR-145-TP2` <int>,
    #   `ACR-145-TP3` <int>, `ACR-145-TP4` <int>, `ACR-150-TP1` <int>,
    #   `ACR-150-TP2` <int>, `ACR-150-TP3` <int>, `ACR-150-TP4` <int>,
    #   `ACR-173-TP1` <int>, `ACR-173-TP2` <int>, `ACR-173-TP3` <int>,
    #   `ACR-173-TP4` <int>, `ACR-186-TP1` <int>, `ACR-186-TP2` <int>,
    #   `ACR-186-TP3` <int>, `ACR-186-TP4` <int>, `ACR-225-TP1` <int>, …
…
    $ `ACR-173-TP4` <dbl> NA, NA, NA, NA, NA, NA, NA, 17.647059, 25.000000, 12.500…
    $ `ACR-225-TP2` <dbl> 0.000000, 0.000000, 0.000000, 8.333333, 0.000000, 0.0000…
    $ `ACR-244-TP2` <dbl> NA, NA, NA, NA, NA, NA, NA, 33.33333, 26.08696, 40.90909…
    $ `ACR-150-TP2` <dbl> NA, NA, NA, NA, NA, NA, NA, 30.769231, 25.000000, 36.000…
    $ `ACR-237-TP2` <dbl> NA, 0.000000, 0.000000, NA, NA, NA, NA, 12.500000, 12.00…
    $ `ACR-265-TP2` <dbl> 4.166667, 0.000000, 0.000000, 0.000000, 0.000000, 18.750…
    $ `ACR-229-TP4` <dbl> 0.00000, 0.00000, 0.00000, 0.00000, 0.00000, 15.38462, 0…
    $ `ACR-244-TP3` <dbl> NA, NA, NA, NA, NA, NA, NA, NA, NA, NA, 27.272727, 15.38…
    $ `ACR-150-TP1` <dbl> NA, 0.000000, 0.000000, NA, NA, NA, NA, 28.571429, 20.00…
    $ `ACR-139-TP1` <dbl> 0.000000, 0.000000, 0.000000, 5.882353, 0.000000, 5.5555…
    $ `ACR-145-TP2` <dbl> 0.000000, 2.631579, 2.439024, 0.000000, 0.000000, 8.6956…
    $ `ACR-139-TP4` <dbl> 0.00000, 0.00000, 0.00000, 0.00000, 0.00000, 16.66667, 0…
    $ `ACR-229-TP3` <dbl> 0.00000, 0.00000, 0.00000, 0.00000, 0.00000, 12.50000, 0…
    $ `ACR-237-TP4` <dbl> NA, NA, NA, NA, NA, NA, NA, 40.000000, 30.000000, 30.000…
    # A tibble: 6,566,306 × 40
       CpG     `ACR-145-TP3` `ACR-265-TP4` `ACR-139-TP3` `ACR-244-TP1` `ACR-237-TP1`
       <chr>           <dbl>         <dbl>         <dbl>         <dbl>         <dbl>
     1 CpG_nt…          0             0             0               NA          NA  
     2 CpG_nt…          0             0             0               NA          NA  
     3 CpG_nt…          0             0             0               NA          NA  
     4 CpG_nt…          0            NA             0               NA          NA  
     5 CpG_nt…          0             0             0               NA          NA  
     6 CpG_nt…         17.4          30            NA               NA          NA  
     7 CpG_nt…          0            NA            NA               NA          NA  
     8 CpG_nt…         13.3           9.09         17.6             50          33.3
     9 CpG_nt…          6.67          0            12.5             NA          21.4
    10 CpG_nt…         13.3           0             6.67            50          28.6
    # ℹ 6,566,296 more rows
    # ℹ 34 more variables: `ACR-265-TP3` <dbl>, `ACR-186-TP4` <dbl>,
    #   `ACR-186-TP2` <dbl>, `ACR-244-TP4` <dbl>, `ACR-225-TP3` <dbl>,
    #   `ACR-139-TP2` <dbl>, `ACR-186-TP1` <dbl>, `ACR-145-TP1` <dbl>,
    #   `ACR-145-TP4` <dbl>, `ACR-225-TP4` <dbl>, `ACR-173-TP3` <dbl>,
    #   `ACR-150-TP4` <dbl>, `ACR-173-TP1` <dbl>, `ACR-173-TP2` <dbl>,
    #   `ACR-237-TP3` <dbl>, `ACR-265-TP1` <dbl>, `ACR-186-TP3` <dbl>, …
…
