…
# View top consistently high-performing features
print(MP_summary)
```

    ## # A tibble: 99 × 5
    ##    Feature    Mean_R2  SD_R2   SE_R2 High_Perf_Count
    ##    <chr>        <dbl>  <dbl>   <dbl>           <int>
    ##  1 FUN_004083   0.793 0.0995 0.0199               25
    ##  2 FUN_008934   0.889 0.0779 0.0156               25
    ##  3 FUN_025232   0.845 0.0819 0.0164               25
    ##  4 FUN_028200   0.937 0.0330 0.00659              25
    ##  5 FUN_037573   0.722 0.107  0.0213               25
    ##  6 FUN_039293   0.859 0.0960 0.0192               25
    ##  7 FUN_001160   0.757 0.101  0.0202               24
    ##  8 FUN_012474   0.762 0.134  0.0268               24
    ##  9 FUN_023596   0.773 0.140  0.0279               24
    ## 10 FUN_027948   0.924 0.196  0.0391               24
    ## # ℹ 89 more rows
…
# View top consistently high-performing features
print(MP_summary_highperf)
```

    ## # A tibble: 29 × 5
    ##    Feature    Mean_R2  SD_R2   SE_R2 High_Perf_Count
    ##    <chr>        <dbl>  <dbl>   <dbl>           <int>
    ##  1 FUN_008934   0.870 0.0949 0.0134               50
    ##  2 FUN_025232   0.848 0.0928 0.0131               50
    ##  3 FUN_028200   0.934 0.0521 0.00736              50
    ##  4 FUN_039293   0.866 0.0851 0.0120               50
    ##  5 FUN_023596   0.761 0.150  0.0213               48
    ##  6 FUN_041721   0.802 0.129  0.0182               48
    ##  7 FUN_001160   0.779 0.131  0.0185               47
    ##  8 FUN_035468   0.735 0.181  0.0256               46
    ##  9 FUN_037573   0.756 0.158  0.0223               46
    ## 10 FUN_002433   0.744 0.155  0.0219               45
    ## # ℹ 19 more rows
…
Save top predictors and metrics of each well-predicted gene

``` r
# Combine all sub-tibbles into a single data frame with the parent list name as an ID
top_predictors_df <- imap_dfr(top_predictors, ~ {
  .x
})

# View the resulting data frame
print(top_predictors_df)
```

    ## # A tibble: 560 × 4
    ##    Predictor              MeanImportance Type   Feature   
    ##    <chr>                           <dbl> <chr>  <chr>     
    ##  1 lncRNA_19090                   0.100  lncRNA FUN_001160
    ##  2 lncRNA_19455                   0.0465 lncRNA FUN_001160
    ##  3 lncRNA_19080                   0.0454 lncRNA FUN_001160
    ##  4 CpG_ptg000035l_4874360         0.0453 CpG    FUN_001160
    ##  5 lncRNA_20578                   0.0432 lncRNA FUN_001160
    ##  6 lncRNA_8841                    0.0411 lncRNA FUN_001160
    ##  7 lncRNA_22049                   0.0277 lncRNA FUN_001160
    ##  8 lncRNA_18344                   0.0268 lncRNA FUN_001160
    ##  9 lncRNA_040                     0.0254 lncRNA FUN_001160
    ## 10 lncRNA_7887                    0.0231 lncRNA FUN_001160
    ## # ℹ 550 more rows
…
